<svg width="61" height="61" viewBox="0 0 61 61" fill="none" xmlns="http://www.w3.org/2000/svg">
<g clip-path="url(#clip0)">
<path d="M60.1064 50.265C59.6129 50.265 59.2129 50.6651 59.2129 51.1586V57.1291C59.2129 57.212 59.1455 57.2795 59.0624 57.2795H55.6672V44.2245C55.6672 43.731 55.2672 43.3309 54.7736 43.3309C54.28 43.3309 53.8801 43.731 53.8801 44.2245V57.2796H47.319L49.0948 55.3261C49.369 55.0243 49.4983 54.5958 49.4408 54.1796C49.4395 54.1707 49.4381 54.1619 49.4366 54.1529L47.4404 42.3585L47.8077 41.8056L47.9034 41.8735C48.2309 42.1062 48.6486 42.191 49.0527 42.0901C49.4496 41.9908 49.7821 41.7238 49.9649 41.3578V41.3577L51.9961 37.2866L56.636 39.0836C56.8191 39.1632 59.2124 40.2606 59.2124 43.1159V46.9884C59.2125 47.482 59.6125 47.8821 60.1061 47.8821C60.5997 47.8821 60.9996 47.482 60.9996 46.9885V43.116C60.9996 38.9925 57.463 37.4913 57.3125 37.4293C57.3068 37.4269 57.3012 37.4247 57.2955 37.4225L49.3944 34.3625V32.7351C50.6278 31.7429 51.4939 30.3128 51.754 28.6826C52.3691 28.6054 52.9398 28.3591 53.4134 27.9518C54.0925 27.3678 54.4822 26.518 54.4822 25.6205C54.4822 24.9041 54.2335 24.2185 53.7883 23.6741V21.2629C53.7883 16.5442 49.9494 12.7054 45.2309 12.7054C43.1125 12.7054 41.1729 13.4808 39.6768 14.7606C39.6575 14.0759 39.4125 13.4235 38.9854 12.9012V10.4901C38.9854 5.77144 35.1464 1.93262 30.428 1.93262C25.7093 1.93262 21.8705 5.77156 21.8705 10.4901V12.9641C21.441 13.4773 21.2007 14.0961 21.1795 14.753C20.2249 13.9372 19.0825 13.323 17.8092 12.9878C17.3312 12.862 16.8431 13.1471 16.7174 13.6243C16.5917 14.1016 16.8767 14.5905 17.354 14.7161C20.3221 15.4977 22.3952 18.1899 22.3952 21.2628V22.5992C22.3566 22.5912 22.2327 22.5699 22.2279 22.5692C22.2158 22.3169 22.1519 22.1629 22.0144 21.9651C21.7857 21.6364 21.3749 21.2269 20.0536 19.8068C19.5827 19.301 18.8212 19.2082 18.2431 19.5861C15.9801 21.0644 13.2307 21.8179 10.6791 21.6681C9.84803 21.6194 9.32893 21.9845 9.10769 22.583C9.08791 22.5862 8.8669 22.6308 8.85463 22.6337V21.2628C8.85463 18.2999 10.8345 15.6344 13.6692 14.7805C14.1417 14.6382 14.4094 14.1397 14.2672 13.6671C14.1248 13.1945 13.6256 12.9268 13.1537 13.0693C11.4297 13.5885 9.88007 14.6696 8.79054 16.1131C7.66311 17.6064 7.06729 19.3872 7.06729 21.2629V23.737C6.61718 24.2748 6.37377 24.9284 6.37377 25.6205C6.37377 27.1502 7.50084 28.4844 9.10661 28.6833C9.36968 30.2754 10.2334 31.8022 11.5966 32.8403V34.363L3.70443 37.4228C3.69883 37.4249 3.69323 37.4272 3.68763 37.4294C3.5368 37.4913 0 38.9924 0 43.1159V57.1291C0 58.1976 0.869248 59.0668 1.93782 59.0668H29.4558C29.8404 59.0668 30.1982 58.9527 30.5001 58.7588C30.8017 58.9527 31.1596 59.0668 31.5443 59.0668H59.0624C60.1309 59.0668 61.0001 58.1976 61.0001 57.1291V51.1586C61 50.6651 60.6 50.265 60.1064 50.265ZM9.01917 26.837C8.49531 26.6469 8.16064 26.1623 8.16064 25.6202C8.16064 25.0945 8.54189 24.6625 9.01917 24.4574V26.837ZM50.3224 36.6383L48.5684 40.1537C48.5682 40.1535 46.6201 38.7699 46.5925 38.7502C47.4329 37.7127 47.0381 38.2001 48.7856 36.0432L50.3224 36.6383ZM45.3008 37.5054L42.9898 34.6529V33.7956C43.741 34.0554 44.5502 34.1752 45.3118 34.1755C45.312 34.1755 45.3122 34.1755 45.3123 34.1755H45.3124C46.0999 34.1753 46.8972 34.0258 47.6073 33.7586V34.6583L45.3008 37.5054ZM46.3499 40.7702L46.0212 41.265H44.5807L44.252 40.7702L45.301 40.0253L46.3499 40.7702ZM30.4977 26.7325L28.1867 23.8799V23.0227C28.9349 23.2814 29.7433 23.4023 30.5088 23.4026C30.5089 23.4026 30.5091 23.4026 30.5092 23.4026H30.5094C31.2954 23.4026 32.0926 23.2535 32.8042 22.9858V23.8854L30.4977 26.7325ZM31.5467 29.9976L31.218 30.4924H29.7775L29.4488 29.9976L30.4978 29.2526L31.5467 29.9976ZM23.4609 17.8248C23.607 17.8645 23.7571 17.8916 23.9095 17.9104C24.1725 19.5025 25.0363 21.0293 26.3995 22.0673V23.5901L24.5765 24.2967C24.4708 24.0747 24.3387 23.8656 24.1819 23.674V21.2629C24.1819 20.0503 23.9265 18.8846 23.4609 17.8248ZM35.246 16.8785C35.246 19.494 33.1125 21.6151 30.5094 21.6151C27.5724 21.6151 25.6097 19.3389 25.6097 16.8785V12.6929C28.4313 12.8058 31.3625 11.9696 33.759 10.478C34.5648 11.342 35.0442 11.8439 35.2461 12.0769C35.246 14.3017 35.246 15.1607 35.246 16.8785ZM36.951 17.9098C37.1026 17.8908 37.252 17.8636 37.3972 17.8239C36.933 18.8771 36.6733 20.0399 36.6733 21.2629V23.7369C36.536 23.9009 36.4178 24.0757 36.3199 24.2591L34.5915 23.5897V21.9623C35.8247 20.9699 36.691 19.5399 36.951 17.9098ZM27.0097 25.2717L29.2033 27.9793L27.7074 29.0418C27.7066 29.0424 27.706 29.043 27.7051 29.0436L27.2304 29.3809L25.4763 25.8657L27.0097 25.2717ZM32.5543 27.0331L33.9824 25.2703L35.5192 25.8654L33.7653 29.3809L33.2895 29.043C33.289 29.0427 33.2885 29.0422 33.2881 29.0418L31.7894 27.9773L32.5543 27.0331ZM33.0046 31.0328L33.1003 31.1007C33.4344 31.338 33.8536 31.4164 34.2496 31.3173C34.6465 31.218 34.979 30.951 35.1618 30.585V30.5849L36.6699 27.5625C37.188 28.201 37.9374 28.5894 38.7092 28.6858C38.9818 30.3943 39.9052 31.8523 41.2027 32.8403V34.3629L33.6058 37.3081L32.6372 31.5858L33.0046 31.0328ZM41.8128 36.0445L44.0064 38.7521C43.0473 39.4335 42.0831 40.1184 42.0334 40.1537L40.2793 36.6385L41.8128 36.0445ZM50.049 27.6515C50.0492 30.2031 47.977 32.388 45.3124 32.388C42.2753 32.388 40.4128 30.0092 40.4128 27.6515V23.4658C43.2142 23.5777 46.1493 22.7525 48.562 21.2509C49.3677 22.1149 49.8471 22.6168 50.0491 22.8499C50.049 25.0744 50.049 25.9336 50.049 27.6515ZM52.6951 25.6203C52.6951 26.1634 52.3593 26.647 51.8366 26.837V24.4062C52.377 24.603 52.6951 25.0968 52.6951 25.6203ZM38.4605 21.2628C38.4605 17.5296 41.4978 14.4925 45.2308 14.4925C48.964 14.4925 52.001 17.5298 52.001 21.2628V22.5992C51.9603 22.5907 51.8486 22.5714 51.8337 22.5692C51.8215 22.3167 51.7573 22.1623 51.6202 21.9651C51.3854 21.6278 50.9791 21.2254 49.6594 19.8068C49.1985 19.3121 48.4387 19.2007 47.8489 19.5861C45.6472 21.0244 42.8655 21.8368 40.2186 21.6649C39.475 21.6162 38.9364 21.9803 38.7135 22.5831C38.6936 22.5863 38.4729 22.6309 38.4604 22.6339V21.2628H38.4605ZM38.6256 24.4575V26.8358C38.1001 26.6464 37.767 26.1605 37.767 25.6202C37.7669 25.0945 38.1479 24.6627 38.6256 24.4575ZM37.8918 14.8476C37.8918 15.2238 37.7289 15.5797 37.445 15.8238C37.3231 15.9286 37.1842 16.0092 37.0332 16.0641V13.6333C37.5676 13.8272 37.8918 14.3185 37.8918 14.8476ZM30.4276 3.71972C34.1608 3.71972 37.1979 6.75685 37.1979 10.49V11.8264C37.1575 11.8181 37.0455 11.7986 37.0306 11.7964C37.0174 11.5227 36.9385 11.3545 36.7776 11.1368C36.5383 10.813 36.0973 10.3678 34.8563 9.03386C34.3877 8.53073 33.6267 8.43363 33.0459 8.81321C30.7207 10.3323 27.9001 11.0715 25.3434 10.8884C24.7179 10.8411 24.129 11.219 23.9105 11.8101C23.8906 11.8133 23.6699 11.8578 23.6575 11.8608V10.4901H23.6574C23.6574 6.75685 26.6946 3.71972 30.4276 3.71972ZM23.8222 13.6846V16.0642C23.2984 15.8741 22.9637 15.3895 22.9637 14.8474C22.9637 14.3246 23.342 13.8911 23.8222 13.6846ZM22.23 24.4062C22.73 24.5881 23.051 25.0243 23.0829 25.5427C23.1229 26.1191 22.7687 26.6403 22.23 26.8359V24.4062ZM22.1472 28.6856C22.99 28.5802 23.7636 28.136 24.2709 27.4527L25.8338 30.5849C25.8338 30.5849 25.8338 30.5849 25.8339 30.585C26.0166 30.9512 26.3491 31.218 26.7459 31.3173C27.1383 31.4153 27.558 31.3403 27.8953 31.1007L27.991 31.0328L28.3583 31.5857L27.39 37.3065L19.7884 34.3624V32.7357H19.7883C21.0539 31.7152 21.8932 30.2734 22.1472 28.6856ZM15.6944 37.5054L13.3834 34.6529V33.7956C14.1316 34.0543 14.9401 34.1752 15.7056 34.1753C15.7057 34.1753 15.7059 34.1753 15.706 34.1753C16.505 34.1753 17.3009 34.0219 18.0009 33.7586V34.6583L15.6944 37.5054ZM16.7435 40.7702L16.4148 41.265H14.9743L14.6456 40.7702L15.6946 40.0253L16.7435 40.7702ZM19.1791 36.0432L20.716 36.6385L18.962 40.1537L18.4862 39.8158C18.4857 39.8155 18.4852 39.815 18.4848 39.8146L16.9861 38.7502L19.1791 36.0432ZM10.8064 27.6515V23.4658C13.643 23.5791 16.5761 22.7318 18.9556 21.2509C19.7537 22.1068 20.2405 22.6166 20.4427 22.8499C20.4427 25.0746 20.4427 25.9337 20.4427 27.6515C20.4427 30.2503 18.3238 32.388 15.706 32.388C12.7915 32.388 10.8064 30.1378 10.8064 27.6515ZM12.2065 36.0445L14.4001 38.7521L12.9042 39.8146C12.9034 39.8152 12.9028 39.8158 12.902 39.8164L12.4272 40.1537L10.6731 36.6385L12.2065 36.0445ZM7.12019 57.2798V44.2245C7.12019 43.731 6.72023 43.3309 6.22663 43.3309C5.73304 43.3309 5.33308 43.731 5.33308 44.2245V57.2796H1.93782C1.85466 57.2796 1.78723 57.2121 1.78723 57.1292V43.1159C1.78723 40.2459 4.20542 39.152 4.36197 39.0843L8.99903 37.2866L11.0305 41.3577C11.0305 41.3577 11.0305 41.3577 11.0306 41.3578C11.2133 41.724 11.5458 41.9908 11.9428 42.0901C12.3351 42.1881 12.7548 42.1131 13.0921 41.8735L13.1878 41.8056L13.5551 42.3585L11.5589 54.1529C11.5573 54.1617 11.556 54.1707 11.5547 54.1796C11.4973 54.5955 11.6266 55.0241 11.9009 55.3263L13.6765 57.2796H7.12019V57.2798ZM13.3524 54.2659L15.2502 43.0523H16.1389L18.0368 54.2659L15.6946 56.8425L13.3524 54.2659ZM29.6063 57.1291C29.6063 57.2121 29.5388 57.2796 29.4558 57.2796H26.0608V44.2245C26.0608 43.731 25.6608 43.3309 25.1672 43.3309C24.6736 43.3309 24.2737 43.731 24.2737 44.2245V57.2796H17.7126L19.4884 55.3261C19.7627 55.0243 19.8919 54.5958 19.8344 54.1796C19.8331 54.1707 19.8318 54.1619 19.8302 54.1529L17.834 42.3585L18.2013 41.8056L18.297 41.8735C18.5361 42.0434 18.8192 42.132 19.1064 42.132C19.6305 42.132 20.1186 41.8383 20.3586 41.3578V41.3577L22.3898 37.2867L27.0297 39.0837C28.3822 39.672 29.6061 41.1893 29.6061 43.1159V57.1291H29.6063ZM30.4999 39.8688C30.1298 39.2724 29.637 38.7206 29.043 38.2496L30.0534 32.2796H30.9421L31.953 38.2527C31.3431 38.737 30.8568 39.2939 30.4999 39.8688ZM36.7265 57.2798V44.2245C36.7265 43.731 36.3265 43.3309 35.8329 43.3309C35.3393 43.3309 34.9393 43.731 34.9393 44.2245V57.2796H31.5442C31.4612 57.2796 31.3936 57.2121 31.3936 57.1292V43.1159C31.3936 42.0536 31.7267 41.0752 32.4363 40.2533C32.9094 39.7106 33.5369 39.2712 33.9685 39.0843L38.6055 37.2865L40.637 41.3577C40.637 41.3577 40.637 41.3577 40.6371 41.3578C40.8198 41.724 41.1523 41.9908 41.5491 42.0901C41.9415 42.1881 42.3612 42.1131 42.6985 41.8735L42.7942 41.8056L43.1615 42.3585L41.1653 54.1529C41.1637 54.1617 41.1624 54.1707 41.1611 54.1796C41.1037 54.5955 41.2329 55.0241 41.5073 55.3263L43.2829 57.2796H36.7265V57.2798ZM42.9587 54.266L44.8566 43.0524H45.7453L47.6432 54.266L45.3009 56.8426L42.9587 54.266Z" fill="#1D3B95"/>
</g>
<defs>
<clipPath id="clip0">
<rect width="61" height="61" fill="white"/>
</clipPath>
</defs>
</svg>
