<svg width="16" height="16" viewBox="0 0 16 16" fill="none" xmlns="http://www.w3.org/2000/svg">
<g clip-path="url(#clip0)">
<path d="M4.11538 0.750092C4.11538 0.675745 4.17565 0.615476 4.25 0.615476H12.0385C13.0581 0.615476 13.8846 1.44203 13.8846 2.46163V12.5987C13.8846 12.7062 13.7648 12.7703 13.6753 12.7107C13.6379 12.6857 13.6154 12.6437 13.6154 12.5987V2.73086C13.6154 1.71126 12.7888 0.884707 11.7692 0.884707H4.25C4.17565 0.884707 4.11538 0.824438 4.11538 0.750092Z" stroke="#D76060" stroke-width="1.23077"/>
<path d="M2.11538 3.73086C2.11538 3.39099 2.3909 3.11548 2.73077 3.11548H10.7692C11.1091 3.11548 11.3846 3.39099 11.3846 3.73086L11.3846 14.781L7.4809 11.8997C7.0464 11.579 6.4536 11.579 6.0191 11.8997L2.11538 14.781L2.11538 3.73086Z" stroke="#D76060" stroke-width="1.23077"/>
</g>
<defs>
<clipPath id="clip0">
<rect y="9.15527e-05" width="16" height="16" fill="white"/>
</clipPath>
</defs>
</svg>
